# Alias OBJ Model File
# Exported from SketchUp, (c) 2000-2012 Trimble Navigation Limited
# File units = meters

mtllib lever base.mtl

g Mesh1 Model

usemtl FrontColor
v 0.304961 0.7372 -0.0091602
vt 0.360638 29.0236
vn 1 1.1541e-015 -2.76626e-015
v 0.304961 -0.00279979 -0.0091602
vt 0.360638 -0.110228
v 0.304961 0.0467708 -0.19416
vt 7.6441 1.84137
v 0.304961 0.1822 -0.32959
vt 12.976 7.17324
v 0.304961 0.3672 -0.37916
vt 14.9276 14.4567
v 0.304961 0.5522 -0.32959
vt 12.976 21.7402
v 0.304961 0.68763 -0.19416
vt 7.6441 27.072
f 1/1/1 2/2/1 3/3/1 4/4/1 5/5/1 6/6/1 7/7/1 

vt 12.0063 29.0236
vn 0 0 1
v 0.00496061 0.7372 -0.0091602
vt 0.1953 29.0236
v 0.00496061 -0.00279979 -0.0091602
vt 0.1953 -0.110228
vt 12.0063 -0.110228
f 1/8/2 8/9/2 9/10/2 2/11/2 

vt -12.0063 -0.376879
vn 8.79333e-016 0.965926 -0.258819
v 0.254961 0.68763 -0.19416
vt -10.0378 -0.376879
v 0.194961 0.68763 -0.19416
vt -7.67561 -0.376879
v 0.114961 0.68763 -0.19416
vt -4.52601 -0.376879
v 0.0549606 0.68763 -0.19416
vt -2.1638 -0.376879
v 0.00496061 0.68763 -0.19416
vt -0.1953 -0.376879
vt -0.1953 7.16352
vt -12.0063 7.16352
f 7/12/3 10/13/3 11/14/3 12/15/3 13/16/3 14/17/3 8/18/3 1/19/3 

vt -12.0063 13.7376
vn 2.13847e-015 0.707107 -0.707107
vt -12.0063 6.19722
v 0.254961 0.5522 -0.32959
vt -10.0378 6.19722
vt -10.0378 13.7376
f 7/20/4 6/21/4 15/22/4 10/23/4 

vt -12.0063 17.641
vn 3.72527e-015 0.258819 -0.965926
vt -12.0063 10.1006
v 0.254961 0.3672 -0.37916
vt -10.0378 10.1006
vt -10.0378 17.641
f 6/24/5 5/25/5 16/26/5 15/27/5 

vt -12.0063 17.8276
vn -3.47094e-015 -0.258819 -0.965926
vt -12.0063 10.2872
v 0.254961 0.1822 -0.32959
vt -10.0378 10.2872
vt -10.0378 17.8276
f 5/28/6 4/29/6 17/30/6 16/31/6 

vt -12.0063 6.70724
vn 5.63066e-017 -0.707107 -0.707107
v 0.00496061 0.0467708 -0.19416
vt -0.1953 6.70724
v 0.00496061 0.1822 -0.32959
vt -0.1953 14.2476
v 0.0549606 0.1822 -0.32959
vt -2.1638 14.2476
v 0.114961 0.1822 -0.32959
vt -4.52601 14.2476
v 0.194961 0.1822 -0.32959
vt -7.67561 14.2476
vt -10.0378 14.2476
vt -12.0063 14.2476
f 3/32/7 18/33/7 19/34/7 20/35/7 21/36/7 22/37/7 17/38/7 4/39/7 

vt -12.0063 0.31982
vn -5.76752e-017 -0.965926 -0.258819
vt -0.1953 0.31982
vt -0.1953 7.86022
vt -12.0063 7.86022
f 2/40/8 9/41/8 18/42/8 3/43/8 

vt -0.360638 -0.110228
vn -1 -2.39197e-017 1.76992e-015
vt -0.360638 29.0236
vt -7.6441 27.072
v 0.00496061 0.5522 -0.32959
vt -12.976 21.7402
v 0.00496061 0.3672 -0.37916
vt -14.9276 14.4567
vt -12.976 7.17324
vt -7.6441 1.84137
f 9/44/9 8/45/9 14/46/9 23/47/9 24/48/9 19/49/9 18/50/9 

vt -2.1638 13.7376
vn -7.48466e-015 0.707107 -0.707107
v 0.0549606 0.5522 -0.32959
vt -2.1638 6.19722
vt -0.1953 6.19722
vt -0.1953 13.7376
f 13/51/10 25/52/10 23/53/10 14/54/10 

vn 1 -1.82565e-015 2.51191e-015
v 0.0549606 0.3672 -0.0091602
vt 0.360638 14.4567
v 0.0549606 0.3672 -0.37916
f 13/7/11 26/55/11 20/4/11 27/5/11 25/6/11 

v 0.114961 0.3672 -0.0091602
vt -4.52601 12.7002
vn -2.95547e-015 -0.5 -0.866025
vt -2.1638 12.7002
vt -2.1638 27.2671
vt -4.52601 27.2671
f 28/56/12 26/57/12 13/58/12 12/59/12 

vt -4.52601 -7.6509
vn -6.09751e-015 0.866025 -0.5
vt -2.1638 -7.6509
vt -2.1638 6.91603
vt -4.52601 6.91603
f 21/60/13 20/61/13 26/62/13 28/63/13 

vn 1 -1.19226e-015 2.49845e-015
v 0.114961 0.3672 -0.37916
v 0.114961 0.5522 -0.32959
f 12/7/14 28/55/14 21/4/14 29/5/14 30/6/14 

vt -4.52601 10.2872
vn -7.68187e-016 -0.258819 -0.965926
vt -4.52601 17.8276
v 0.194961 0.3672 -0.37916
vt -7.67561 17.8276
vt -7.67561 10.2872
f 21/64/15 29/65/15 31/66/15 22/67/15 

v 0.194961 0.5522 -0.32959
vt -7.67561 17.641
vn 8.50955e-015 0.258819 -0.965926
vt -7.67561 10.1006
vt -4.52601 10.1006
vt -4.52601 17.641
f 32/68/16 31/69/16 29/70/16 30/71/16 

vn 1 2.65973e-015 -2.94216e-016
v 0.194961 0.3672 -0.0091602
f 11/7/17 33/55/17 22/4/17 31/5/17 32/6/17 

v 0.254961 0.3672 -0.0091602
vt -10.0378 12.7002
vn -2.68205e-015 -0.5 -0.866025
vt -7.67561 12.7002
vt -7.67561 27.2671
vt -10.0378 27.2671
f 34/72/18 33/73/18 11/74/18 10/75/18 

vt -10.0378 -7.6509
vn -6.92885e-015 0.866025 -0.5
vt -7.67561 -7.6509
vt -7.67561 6.91603
vt -10.0378 6.91603
f 17/76/19 22/77/19 33/78/19 34/79/19 

vn 1 2.85997e-015 -3.79119e-015
f 10/7/20 34/55/20 17/4/20 16/5/20 15/6/20 

vt -7.67561 13.7376
vn 1.1649e-014 0.707107 -0.707107
vt -7.67561 6.19722
vt -4.52601 6.19722
vt -4.52601 13.7376
f 11/80/21 32/81/21 30/82/21 12/83/21 

vt -2.1638 17.8276
vn -3.59537e-015 -0.258819 -0.965926
vt -2.1638 10.2872
vt -0.1953 10.2872
vt -0.1953 17.8276
f 27/84/22 20/85/22 19/86/22 24/87/22 

vt -2.1638 17.641
vn 5.44838e-015 0.258819 -0.965926
vt -2.1638 10.1006
vt -0.1953 10.1006
vt -0.1953 17.641
f 25/88/23 27/89/23 24/90/23 23/91/23 

