%YAML 1.1
%TAG !u! tag:unity3d.com,2011:
--- !u!74 &7400000
AnimationClip:
  m_ObjectHideFlags: 0
  m_PrefabParentObject: {fileID: 0}
  m_PrefabInternal: {fileID: 0}
  m_Name: Lsuono1
  serializedVersion: 6
  m_Legacy: 0
  m_Compressed: 0
  m_UseHighQualityCurve: 1
  m_RotationCurves: []
  m_CompressedRotationCurves: []
  m_EulerCurves:
  - curve:
      serializedVersion: 2
      m_Curve:
      - serializedVersion: 2
        time: 0
        value: {x: 156.254, y: 89.99999, z: 89.99999}
        inSlope: {x: 658.1632, y: 0, z: 0}
        outSlope: {x: 658.1632, y: 0, z: 0}
        tangentMode: 0
      - serializedVersion: 2
        time: 0.51666665
        value: {x: 496.305, y: 89.99999, z: 89.99999}
        inSlope: {x: 382.248, y: 0, z: 0}
        outSlope: {x: 382.248, y: 0, z: 0}
        tangentMode: 0
      - serializedVersion: 2
        time: 0.75
        value: {x: 521.11597, y: 89.99999, z: 89.99999}
        inSlope: {x: 106.33274, y: 0, z: 0}
        outSlope: {x: 106.33274, y: 0, z: 0}
        tangentMode: 0
      m_PreInfinity: 2
      m_PostInfinity: 2
      m_RotationOrder: 4
    path: perno 3 denti
  - curve:
      serializedVersion: 2
      m_Curve:
      - serializedVersion: 2
        time: 0
        value: {x: -8.069, y: 270.042, z: 269.857}
        inSlope: {x: 242.59355, y: -0.25162235, z: -0.13159968}
        outSlope: {x: 242.59355, y: -0.25162235, z: -0.13159968}
        tangentMode: 0
      - serializedVersion: 2
        time: 0.51666665
        value: {x: 117.270996, y: 269.912, z: 269.789}
        inSlope: {x: -3669.613, y: 3.7139006, z: 2.2138572}
        outSlope: {x: -3669.613, y: 3.7139006, z: 2.2138572}
        tangentMode: 0
      - serializedVersion: 2
        time: 0.53333336
        value: {x: -9.093, y: 270.03998, z: 269.865}
        inSlope: {x: -7581.82, y: 7.6794233, z: 4.5593143}
        outSlope: {x: -7581.82, y: 7.6794233, z: 4.5593143}
        tangentMode: 0
      m_PreInfinity: 2
      m_PostInfinity: 2
      m_RotationOrder: 4
    path: perno battente
  m_PositionCurves: []
  m_ScaleCurves: []
  m_FloatCurves: []
  m_PPtrCurves: []
  m_SampleRate: 60
  m_WrapMode: 0
  m_Bounds:
    m_Center: {x: 0, y: 0, z: 0}
    m_Extent: {x: 0, y: 0, z: 0}
  m_ClipBindingConstant:
    genericBindings:
    - path: 3584310701
      attribute: 4
      script: {fileID: 0}
      classID: 4
      customType: 14
      isPPtrCurve: 0
    - path: 1527971253
      attribute: 4
      script: {fileID: 0}
      classID: 4
      customType: 14
      isPPtrCurve: 0
    pptrCurveMapping: []
  m_AnimationClipSettings:
    serializedVersion: 2
    m_AdditiveReferencePoseClip: {fileID: 0}
    m_AdditiveReferencePoseTime: 0
    m_StartTime: 0
    m_StopTime: 0.75
    m_OrientationOffsetY: 0
    m_Level: 0
    m_CycleOffset: 0
    m_HasAdditiveReferencePose: 0
    m_LoopTime: 1
    m_LoopBlend: 0
    m_LoopBlendOrientation: 0
    m_LoopBlendPositionY: 0
    m_LoopBlendPositionXZ: 0
    m_KeepOriginalOrientation: 0
    m_KeepOriginalPositionY: 1
    m_KeepOriginalPositionXZ: 0
    m_HeightFromFeet: 0
    m_Mirror: 0
  m_EditorCurves:
  - curve:
      serializedVersion: 2
      m_Curve:
      - serializedVersion: 2
        time: 0
        value: 156.254
        inSlope: 658.1632
        outSlope: 658.1632
        tangentMode: 34
      - serializedVersion: 2
        time: 0.51666665
        value: 496.305
        inSlope: 382.248
        outSlope: 382.248
        tangentMode: 34
      - serializedVersion: 2
        time: 0.75
        value: 521.11597
        inSlope: 106.33274
        outSlope: 106.33274
        tangentMode: 34
      m_PreInfinity: 2
      m_PostInfinity: 2
      m_RotationOrder: 4
    attribute: localEulerAnglesRaw.x
    path: perno 3 denti
    classID: 4
    script: {fileID: 0}
  - curve:
      serializedVersion: 2
      m_Curve:
      - serializedVersion: 2
        time: 0
        value: 89.99999
        inSlope: 0
        outSlope: 0
        tangentMode: 34
      - serializedVersion: 2
        time: 0.51666665
        value: 89.99999
        inSlope: 0
        outSlope: 0
        tangentMode: 34
      - serializedVersion: 2
        time: 0.75
        value: 89.99999
        inSlope: 0
        outSlope: 0
        tangentMode: 34
      m_PreInfinity: 2
      m_PostInfinity: 2
      m_RotationOrder: 4
    attribute: localEulerAnglesRaw.y
    path: perno 3 denti
    classID: 4
    script: {fileID: 0}
  - curve:
      serializedVersion: 2
      m_Curve:
      - serializedVersion: 2
        time: 0
        value: 89.99999
        inSlope: 0
        outSlope: 0
        tangentMode: 34
      - serializedVersion: 2
        time: 0.51666665
        value: 89.99999
        inSlope: 0
        outSlope: 0
        tangentMode: 34
      - serializedVersion: 2
        time: 0.75
        value: 89.99999
        inSlope: 0
        outSlope: 0
        tangentMode: 34
      m_PreInfinity: 2
      m_PostInfinity: 2
      m_RotationOrder: 4
    attribute: localEulerAnglesRaw.z
    path: perno 3 denti
    classID: 4
    script: {fileID: 0}
  - curve:
      serializedVersion: 2
      m_Curve:
      - serializedVersion: 2
        time: 0
        value: -8.069
        inSlope: 242.59355
        outSlope: 242.59355
        tangentMode: 34
      - serializedVersion: 2
        time: 0.51666665
        value: 117.270996
        inSlope: -3669.613
        outSlope: -3669.613
        tangentMode: 34
      - serializedVersion: 2
        time: 0.53333336
        value: -9.093
        inSlope: -7581.82
        outSlope: -7581.82
        tangentMode: 34
      m_PreInfinity: 2
      m_PostInfinity: 2
      m_RotationOrder: 4
    attribute: localEulerAnglesRaw.x
    path: perno battente
    classID: 4
    script: {fileID: 0}
  - curve:
      serializedVersion: 2
      m_Curve:
      - serializedVersion: 2
        time: 0
        value: 270.042
        inSlope: -0.25162235
        outSlope: -0.25162235
        tangentMode: 34
      - serializedVersion: 2
        time: 0.51666665
        value: 269.912
        inSlope: 3.7139006
        outSlope: 3.7139006
        tangentMode: 34
      - serializedVersion: 2
        time: 0.53333336
        value: 270.03998
        inSlope: 7.6794233
        outSlope: 7.6794233
        tangentMode: 34
      m_PreInfinity: 2
      m_PostInfinity: 2
      m_RotationOrder: 4
    attribute: localEulerAnglesRaw.y
    path: perno battente
    classID: 4
    script: {fileID: 0}
  - curve:
      serializedVersion: 2
      m_Curve:
      - serializedVersion: 2
        time: 0
        value: 269.857
        inSlope: -0.13159968
        outSlope: -0.13159968
        tangentMode: 34
      - serializedVersion: 2
        time: 0.51666665
        value: 269.789
        inSlope: 2.2138572
        outSlope: 2.2138572
        tangentMode: 34
      - serializedVersion: 2
        time: 0.53333336
        value: 269.865
        inSlope: 4.5593143
        outSlope: 4.5593143
        tangentMode: 34
      m_PreInfinity: 2
      m_PostInfinity: 2
      m_RotationOrder: 4
    attribute: localEulerAnglesRaw.z
    path: perno battente
    classID: 4
    script: {fileID: 0}
  m_EulerEditorCurves:
  - curve:
      serializedVersion: 2
      m_Curve: []
      m_PreInfinity: 2
      m_PostInfinity: 2
      m_RotationOrder: 4
    attribute: m_LocalEulerAngles.z
    path: perno 3 denti
    classID: 4
    script: {fileID: 0}
  - curve:
      serializedVersion: 2
      m_Curve: []
      m_PreInfinity: 2
      m_PostInfinity: 2
      m_RotationOrder: 4
    attribute: m_LocalEulerAngles.y
    path: perno 3 denti
    classID: 4
    script: {fileID: 0}
  - curve:
      serializedVersion: 2
      m_Curve: []
      m_PreInfinity: 2
      m_PostInfinity: 2
      m_RotationOrder: 4
    attribute: m_LocalEulerAngles.x
    path: perno 3 denti
    classID: 4
    script: {fileID: 0}
  - curve:
      serializedVersion: 2
      m_Curve: []
      m_PreInfinity: 2
      m_PostInfinity: 2
      m_RotationOrder: 4
    attribute: m_LocalEulerAngles.x
    path: perno battente
    classID: 4
    script: {fileID: 0}
  - curve:
      serializedVersion: 2
      m_Curve: []
      m_PreInfinity: 2
      m_PostInfinity: 2
      m_RotationOrder: 4
    attribute: m_LocalEulerAngles.y
    path: perno battente
    classID: 4
    script: {fileID: 0}
  - curve:
      serializedVersion: 2
      m_Curve: []
      m_PreInfinity: 2
      m_PostInfinity: 2
      m_RotationOrder: 4
    attribute: m_LocalEulerAngles.z
    path: perno battente
    classID: 4
    script: {fileID: 0}
  m_HasGenericRootTransform: 0
  m_HasMotionFloatCurves: 0
  m_GenerateMotionCurves: 0
  m_IsEmpty: 0
  m_Events: []
